# [HIJACK] CUDA Runtime API

```
6.1. Device Management................................................................................................................10
cudaChooseDevice...................................................................................................................... 10
cudaDeviceFlushGPUDirectRDMAWrites.................................................................................. 11
cudaDeviceGetAttribute.............................................................................................................. 12
cudaDeviceGetByPCIBusId......................................................................................................... 18
cudaDeviceGetCacheConfig........................................................................................................19
cudaDeviceGetDefaultMemPool.................................................................................................20
cudaDeviceGetLimit.................................................................................................................... 21
cudaDeviceGetMemPool.............................................................................................................22
cudaDeviceGetNvSciSyncAttributes........................................................................................... 23
cudaDeviceGetP2PAttribute....................................................................................................... 24
cudaDeviceGetPCIBusId............................................................................................................. 25
cudaDeviceGetSharedMemConfig..............................................................................................26
cudaDeviceGetStreamPriorityRange..........................................................................................27
cudaDeviceGetTexture1DLinearMaxWidth................................................................................ 28
cudaDeviceReset.........................................................................................................................29
cudaDeviceSetCacheConfig........................................................................................................30
cudaDeviceSetLimit.................................................................................................................... 31
cudaDeviceSetMemPool............................................................................................................. 33
cudaDeviceSetSharedMemConfig.............................................................................................. 34
cudaDeviceSynchronize.............................................................................................................. 35
cudaGetDevice.............................................................................................................................36
cudaGetDeviceCount...................................................................................................................37
cudaGetDeviceFlags....................................................................................................................37
cudaGetDeviceProperties........................................................................................................... 39
cudaInitDevice............................................................................................................................. 45
cudaIpcCloseMemHandle...........................................................................................................46
cudaIpcGetEventHandle..............................................................................................................47
cudaIpcGetMemHandle.............................................................................................................. 48
cudaIpcOpenEventHandle...........................................................................................................49
cudaIpcOpenMemHandle........................................................................................................... 50
cudaSetDevice............................................................................................................................. 52
cudaSetDeviceFlags....................................................................................................................53
cudaSetValidDevices................................................................................................................... 55
6.2. Thread Management [DEPRECATED].................................................................................... 56
cudaThreadExit........................................................................................................................... 56
cudaThreadGetCacheConfig.......................................................................................................57
cudaThreadGetLimit................................................................................................................... 58
cudaThreadSetCacheConfig....................................................................................................... 59
cudaThreadSetLimit....................................................................................................................60
cudaThreadSynchronize............................................................................................................. 61
6.3. Error Handling.........................................................................................................................62
cudaGetErrorName.....................................................................................................................62
cudaGetErrorString.....................................................................................................................63
cudaGetLastError....................................................................................................................... 63
cudaPeekAtLastError................................................................................................................. 64
6.4. Stream Management.............................................................................................................. 65
cudaStreamCallback_t............................................................................................................... 65
cudaCtxResetPersistingL2Cache............................................................................................... 66
cudaStreamAddCallback............................................................................................................ 66
cudaStreamAttachMemAsync.................................................................................................... 68
cudaStreamBeginCapture.......................................................................................................... 70
cudaStreamCopyAttributes........................................................................................................ 71
cudaStreamCreate......................................................................................................................72
cudaStreamCreateWithFlags..................................................................................................... 73
cudaStreamCreateWithPriority.................................................................................................. 74
cudaStreamDestroy.................................................................................................................... 75
cudaStreamEndCapture............................................................................................................. 76
cudaStreamGetAttribute.............................................................................................................77
cudaStreamGetCaptureInfo........................................................................................................77
cudaStreamGetFlags.................................................................................................................. 79
cudaStreamGetId........................................................................................................................ 80
cudaStreamGetPriority............................................................................................................... 81
cudaStreamIsCapturing..............................................................................................................82
cudaStreamQuery....................................................................................................................... 83
cudaStreamSetAttribute............................................................................................................. 84
cudaStreamSynchronize.............................................................................................................84
cudaStreamUpdateCaptureDependencies................................................................................ 85
cudaStreamWaitEvent................................................................................................................ 86
cudaThreadExchangeStreamCaptureMode...............................................................................87
6.5. Event Management................................................................................................................. 88
cudaEventCreate......................................................................................................................... 89
cudaEventCreateWithFlags........................................................................................................ 89
cudaEventDestroy....................................................................................................................... 91
cudaEventElapsedTime...............................................................................................................92
cudaEventQuery.......................................................................................................................... 93
cudaEventRecord........................................................................................................................ 94
cudaEventRecordWithFlags........................................................................................................95
cudaEventSynchronize................................................................................................................96
6.6. External Resource Interoperability........................................................................................ 97
cudaDestroyExternalMemory..................................................................................................... 98
cudaDestroyExternalSemaphore............................................................................................... 99
cudaExternalMemoryGetMappedBuffer.................................................................................. 100
cudaExternalMemoryGetMappedMipmappedArray................................................................ 101
cudaImportExternalMemory.....................................................................................................103
cudaImportExternalSemaphore............................................................................................... 106
cudaSignalExternalSemaphoresAsync.................................................................................... 109
cudaWaitExternalSemaphoresAsync....................................................................................... 111
6.7. Execution Control..................................................................................................................113
cudaFuncGetAttributes............................................................................................................. 113
cudaFuncSetAttribute............................................................................................................... 114
cudaFuncSetCacheConfig.........................................................................................................116
cudaFuncSetSharedMemConfig...............................................................................................117
cudaGetParameterBuffer......................................................................................................... 118
cudaGetParameterBufferV2..................................................................................................... 119
cudaGridDependencySynchronize............................................................................................120
cudaLaunchCooperativeKernel................................................................................................ 120
cudaLaunchCooperativeKernelMultiDevice.............................................................................122
cudaLaunchHostFunc............................................................................................................... 125
cudaLaunchKernel....................................................................................................................126
cudaLaunchKernelExC............................................................................................................. 128
cudaSetDoubleForDevice......................................................................................................... 129
cudaSetDoubleForHost.............................................................................................................130
cudaTriggerProgrammaticLaunchCompletion........................................................................131
6.8. Occupancy..............................................................................................................................131
cudaOccupancyAvailableDynamicSMemPerBlock.................................................................. 132
cudaOccupancyMaxActiveBlocksPerMultiprocessor.............................................................. 133
cudaOccupancyMaxActiveBlocksPerMultiprocessorWithFlags..............................................134
cudaOccupancyMaxActiveClusters...........................................................................................135
cudaOccupancyMaxPotentialClusterSize.................................................................................137
6.9. Memory Management........................................................................................................... 138
cudaArrayGetInfo...................................................................................................................... 138
cudaArrayGetMemoryRequirements....................................................................................... 139
cudaArrayGetPlane................................................................................................................... 140
cudaArrayGetSparseProperties................................................................................................141
cudaFree....................................................................................................................................141
cudaFreeArray...........................................................................................................................143
cudaFreeHost............................................................................................................................ 143
cudaFreeMipmappedArray....................................................................................................... 144
cudaGetMipmappedArrayLevel................................................................................................ 145
cudaGetSymbolAddress............................................................................................................146
cudaGetSymbolSize...................................................................................................................147
cudaHostAlloc........................................................................................................................... 148
cudaHostGetDevicePointer.......................................................................................................149
cudaHostGetFlags.....................................................................................................................151
cudaHostRegister......................................................................................................................152
cudaHostUnregister..................................................................................................................154
cudaMalloc................................................................................................................................ 155
cudaMalloc3D............................................................................................................................156
cudaMalloc3DArray...................................................................................................................157
cudaMallocArray....................................................................................................................... 160
cudaMallocHost.........................................................................................................................161
cudaMallocManaged................................................................................................................. 163
cudaMallocMipmappedArray....................................................................................................165
cudaMallocPitch........................................................................................................................168
cudaMemAdvise........................................................................................................................ 170
cudaMemAdvise_v2...................................................................................................................173
cudaMemcpy............................................................................................................................. 176
cudaMemcpy2D......................................................................................................................... 178
cudaMemcpy2DArrayToArray................................................................................................... 179
cudaMemcpy2DAsync............................................................................................................... 181
cudaMemcpy2DFromArray.......................................................................................................183
cudaMemcpy2DFromArrayAsync............................................................................................. 184
cudaMemcpy2DToArray............................................................................................................186
cudaMemcpy2DToArrayAsync.................................................................................................. 188
cudaMemcpy3D......................................................................................................................... 189
cudaMemcpy3DAsync............................................................................................................... 192
cudaMemcpy3DPeer................................................................................................................. 194
cudaMemcpy3DPeerAsync....................................................................................................... 195
cudaMemcpyAsync....................................................................................................................196
cudaMemcpyFromSymbol........................................................................................................ 198
cudaMemcpyFromSymbolAsync.............................................................................................. 199
cudaMemcpyPeer......................................................................................................................200
cudaMemcpyPeerAsync............................................................................................................202
cudaMemcpyToSymbol............................................................................................................. 203
cudaMemcpyToSymbolAsync................................................................................................... 204
cudaMemGetInfo....................................................................................................................... 206
cudaMemPrefetchAsync........................................................................................................... 207
cudaMemRangeGetAttribute.................................................................................................... 209
cudaMemRangeGetAttributes.................................................................................................. 212
cudaMemset..............................................................................................................................213
cudaMemset2D......................................................................................................................... 214
cudaMemset2DAsync................................................................................................................215
cudaMemset3D......................................................................................................................... 217
cudaMemset3DAsync................................................................................................................218
cudaMemsetAsync.................................................................................................................... 219
cudaMipmappedArrayGetMemoryRequirements.................................................................... 221
cudaMipmappedArrayGetSparseProperties............................................................................ 222
make_cudaExtent......................................................................................................................223
make_cudaPitchedPtr.............................................................................................................. 223
make_cudaPos..........................................................................................................................224
6.10. Memory Management [DEPRECATED].............................................................................. 224
cudaMemcpyArrayToArray....................................................................................................... 225
cudaMemcpyFromArray........................................................................................................... 226
cudaMemcpyFromArrayAsync..................................................................................................228
cudaMemcpyToArray................................................................................................................ 229
cudaMemcpyToArrayAsync.......................................................................................................231
6.11. Stream Ordered Memory Allocator....................................................................................232
cudaFreeAsync.......................................................................................................................... 233
cudaMallocAsync...................................................................................................................... 234
cudaMallocFromPoolAsync...................................................................................................... 235
cudaMemPoolCreate................................................................................................................ 236
cudaMemPoolDestroy...............................................................................................................237
cudaMemPoolExportPointer.................................................................................................... 237
cudaMemPoolExportToShareableHandle................................................................................238
cudaMemPoolGetAccess.......................................................................................................... 239
cudaMemPoolGetAttribute....................................................................................................... 239
cudaMemPoolImportFromShareableHandle.......................................................................... 241
cudaMemPoolImportPointer.................................................................................................... 242
cudaMemPoolSetAccess.......................................................................................................... 242
cudaMemPoolSetAttribute....................................................................................................... 243
cudaMemPoolTrimTo................................................................................................................244
6.12. Unified Addressing.............................................................................................................. 245
cudaPointerGetAttributes......................................................................................................... 247
6.13. Peer Device Memory Access.............................................................................................. 248
cudaDeviceCanAccessPeer...................................................................................................... 248
cudaDeviceDisablePeerAccess................................................................................................ 249
cudaDeviceEnablePeerAccess................................................................................................. 250
6.14. OpenGL Interoperability...................................................................................................... 251
cudaGLDeviceList......................................................................................................................251
cudaGLGetDevices.................................................................................................................... 252
cudaGraphicsGLRegisterBuffer............................................................................................... 253
cudaGraphicsGLRegisterImage............................................................................................... 254
cudaWGLGetDevice................................................................................................................... 255
6.15. OpenGL Interoperability [DEPRECATED]........................................................................... 256
cudaGLMapFlags...................................................................................................................... 256
cudaGLMapBufferObject...........................................................................................................256
cudaGLMapBufferObjectAsync.................................................................................................257
cudaGLRegisterBufferObject....................................................................................................258
cudaGLSetBufferObjectMapFlags............................................................................................ 259
cudaGLSetGLDevice..................................................................................................................260
cudaGLUnmapBufferObject......................................................................................................260
cudaGLUnmapBufferObjectAsync............................................................................................261
cudaGLUnregisterBufferObject................................................................................................262
6.16. Direct3D 9 Interoperability................................................................................................. 262
cudaD3D9DeviceList................................................................................................................. 263
cudaD3D9GetDevice..................................................................................................................263
cudaD3D9GetDevices................................................................................................................264
cudaD3D9GetDirect3DDevice................................................................................................... 265
cudaD3D9SetDirect3DDevice................................................................................................... 265
cudaGraphicsD3D9RegisterResource......................................................................................266
6.17. Direct3D 9 Interoperability [DEPRECATED].......................................................................269
cudaD3D9MapFlags.................................................................................................................. 269
cudaD3D9RegisterFlags........................................................................................................... 269
cudaD3D9MapResources......................................................................................................... 269
cudaD3D9RegisterResource.................................................................................................... 270
cudaD3D9ResourceGetMappedArray.......................................................................................272
cudaD3D9ResourceGetMappedPitch....................................................................................... 273
cudaD3D9ResourceGetMappedPointer................................................................................... 274
cudaD3D9ResourceGetMappedSize.........................................................................................276
cudaD3D9ResourceGetSurfaceDimensions............................................................................ 277
cudaD3D9ResourceSetMapFlags.............................................................................................278
cudaD3D9UnmapResources.....................................................................................................279
cudaD3D9UnregisterResource.................................................................................................280
6.18. Direct3D 10 Interoperability................................................................................................280
cudaD3D10DeviceList............................................................................................................... 280
cudaD3D10GetDevice................................................................................................................281
cudaD3D10GetDevices.............................................................................................................. 282
cudaGraphicsD3D10RegisterResource....................................................................................283
6.19. Direct3D 10 Interoperability [DEPRECATED].....................................................................285
cudaD3D10MapFlags................................................................................................................ 285
cudaD3D10RegisterFlags......................................................................................................... 285
cudaD3D10GetDirect3DDevice................................................................................................. 286
cudaD3D10MapResources........................................................................................................286
cudaD3D10RegisterResource.................................................................................................. 287
cudaD3D10ResourceGetMappedArray.....................................................................................289
cudaD3D10ResourceGetMappedPitch..................................................................................... 290
cudaD3D10ResourceGetMappedPointer................................................................................. 291
cudaD3D10ResourceGetMappedSize.......................................................................................292
cudaD3D10ResourceGetSurfaceDimensions.......................................................................... 293
cudaD3D10ResourceSetMapFlags...........................................................................................294
cudaD3D10SetDirect3DDevice................................................................................................. 295
cudaD3D10UnmapResources...................................................................................................296
cudaD3D10UnregisterResource...............................................................................................297
6.20. Direct3D 11 Interoperability................................................................................................298
cudaD3D11DeviceList............................................................................................................... 298
cudaD3D11GetDevice................................................................................................................298
cudaD3D11GetDevices.............................................................................................................. 299
cudaGraphicsD3D11RegisterResource....................................................................................300
6.21. Direct3D 11 Interoperability [DEPRECATED].....................................................................302
cudaD3D11GetDirect3DDevice................................................................................................. 302
cudaD3D11SetDirect3DDevice................................................................................................. 303
6.22. VDPAU Interoperability....................................................................................................... 304
cudaGraphicsVDPAURegisterOutputSurface...........................................................................304
cudaGraphicsVDPAURegisterVideoSurface.............................................................................305
cudaVDPAUGetDevice...............................................................................................................306
cudaVDPAUSetVDPAUDevice................................................................................................... 307
6.23. EGL Interoperability............................................................................................................ 307
cudaEGLStreamConsumerAcquireFrame............................................................................... 308
cudaEGLStreamConsumerConnect......................................................................................... 309
cudaEGLStreamConsumerConnectWithFlags........................................................................ 309
cudaEGLStreamConsumerDisconnect.................................................................................... 310
cudaEGLStreamConsumerReleaseFrame.............................................................................. 311
cudaEGLStreamProducerConnect........................................................................................... 311
cudaEGLStreamProducerDisconnect...................................................................................... 312
cudaEGLStreamProducerPresentFrame.................................................................................313
cudaEGLStreamProducerReturnFrame.................................................................................. 314
cudaEventCreateFromEGLSync............................................................................................... 314
cudaGraphicsEGLRegisterImage............................................................................................. 315
cudaGraphicsResourceGetMappedEglFrame......................................................................... 317
6.24. Graphics Interoperability.....................................................................................................318
cudaGraphicsMapResources....................................................................................................318
cudaGraphicsResourceGetMappedMipmappedArray............................................................. 319
cudaGraphicsResourceGetMappedPointer..............................................................................320
cudaGraphicsResourceSetMapFlags....................................................................................... 321
cudaGraphicsSubResourceGetMappedArray.......................................................................... 322
cudaGraphicsUnmapResources...............................................................................................323
cudaGraphicsUnregisterResource...........................................................................................324
6.25. Texture Object Management.............................................................................................. 325
cudaCreateChannelDesc.......................................................................................................... 326
cudaCreateTextureObject......................................................................................................... 327
cudaDestroyTextureObject....................................................................................................... 332
cudaGetChannelDesc................................................................................................................333
cudaGetTextureObjectResourceDesc...................................................................................... 334
cudaGetTextureObjectResourceViewDesc...............................................................................335
cudaGetTextureObjectTextureDesc..........................................................................................336
6.26. Surface Object Management.............................................................................................. 336
cudaCreateSurfaceObject.........................................................................................................337
cudaDestroySurfaceObject....................................................................................................... 338
cudaGetSurfaceObjectResourceDesc...................................................................................... 339
6.27. Version Management.......................................................................................................... 339
cudaDriverGetVersion............................................................................................................... 340
cudaRuntimeGetVersion........................................................................................................... 340
6.28. Graph Management.............................................................................................................341
cudaDeviceGetGraphMemAttribute..........................................................................................342
cudaDeviceGraphMemTrim...................................................................................................... 343
cudaDeviceSetGraphMemAttribute..........................................................................................344
cudaGetCurrentGraphExec.......................................................................................................345
cudaGraphAddChildGraphNode............................................................................................... 345
cudaGraphAddDependencies................................................................................................... 346
cudaGraphAddEmptyNode........................................................................................................348
cudaGraphAddEventRecordNode.............................................................................................349
cudaGraphAddEventWaitNode................................................................................................. 350
cudaGraphAddExternalSemaphoresSignalNode.....................................................................352
cudaGraphAddExternalSemaphoresWaitNode........................................................................353
cudaGraphAddHostNode.......................................................................................................... 355
cudaGraphAddKernelNode.......................................................................................................356
cudaGraphAddMemAllocNode................................................................................................. 358
cudaGraphAddMemcpyNode.................................................................................................... 360
cudaGraphAddMemcpyNode1D................................................................................................362
cudaGraphAddMemcpyNodeFromSymbol...............................................................................363
cudaGraphAddMemcpyNodeToSymbol....................................................................................365
cudaGraphAddMemFreeNode.................................................................................................. 367
cudaGraphAddMemsetNode.....................................................................................................368
cudaGraphAddNode.................................................................................................................. 370
cudaGraphChildGraphNodeGetGraph......................................................................................371
cudaGraphClone........................................................................................................................372
cudaGraphCreate...................................................................................................................... 373
cudaGraphDebugDotPrint........................................................................................................ 374
cudaGraphDestroy.................................................................................................................... 374
cudaGraphDestroyNode............................................................................................................375
cudaGraphEventRecordNodeGetEvent.................................................................................... 376
cudaGraphEventRecordNodeSetEvent.....................................................................................377
cudaGraphEventWaitNodeGetEvent......................................................................................... 378
cudaGraphEventWaitNodeSetEvent......................................................................................... 379
cudaGraphExecChildGraphNodeSetParams........................................................................... 380
cudaGraphExecDestroy.............................................................................................................381
cudaGraphExecEventRecordNodeSetEvent.............................................................................382
cudaGraphExecEventWaitNodeSetEvent................................................................................. 383
cudaGraphExecExternalSemaphoresSignalNodeSetParams.................................................384
cudaGraphExecExternalSemaphoresWaitNodeSetParams....................................................386
cudaGraphExecGetFlags.......................................................................................................... 387
cudaGraphExecHostNodeSetParams...................................................................................... 388
cudaGraphExecKernelNodeSetParams...................................................................................389
cudaGraphExecMemcpyNodeSetParams................................................................................ 391
cudaGraphExecMemcpyNodeSetParams1D............................................................................392
cudaGraphExecMemcpyNodeSetParamsFromSymbol...........................................................394
cudaGraphExecMemcpyNodeSetParamsToSymbol................................................................395
cudaGraphExecMemsetNodeSetParams................................................................................ 397
cudaGraphExecNodeSetParams.............................................................................................. 398
cudaGraphExecUpdate............................................................................................................. 400
cudaGraphExternalSemaphoresSignalNodeGetParams........................................................ 403
cudaGraphExternalSemaphoresSignalNodeSetParams........................................................ 404
cudaGraphExternalSemaphoresWaitNodeGetParams........................................................... 405
cudaGraphExternalSemaphoresWaitNodeSetParams........................................................... 406
cudaGraphGetEdges................................................................................................................. 407
cudaGraphGetNodes.................................................................................................................408
cudaGraphGetRootNodes......................................................................................................... 409
cudaGraphHostNodeGetParams..............................................................................................410
cudaGraphHostNodeSetParams.............................................................................................. 411
cudaGraphInstantiate............................................................................................................... 412
cudaGraphInstantiateWithFlags...............................................................................................413
cudaGraphInstantiateWithParams........................................................................................... 415
cudaGraphKernelNodeCopyAttributes.....................................................................................418
cudaGraphKernelNodeGetAttribute......................................................................................... 418
cudaGraphKernelNodeGetParams.......................................................................................... 419
cudaGraphKernelNodeSetAttribute......................................................................................... 420
cudaGraphKernelNodeSetParams...........................................................................................421
cudaGraphLaunch.....................................................................................................................422
cudaGraphMemAllocNodeGetParams.....................................................................................423
cudaGraphMemcpyNodeGetParams........................................................................................424
cudaGraphMemcpyNodeSetParams........................................................................................ 425
cudaGraphMemcpyNodeSetParams1D................................................................................... 426
cudaGraphMemcpyNodeSetParamsFromSymbol...................................................................427
cudaGraphMemcpyNodeSetParamsToSymbol........................................................................428
cudaGraphMemFreeNodeGetParams..................................................................................... 430
cudaGraphMemsetNodeGetParams........................................................................................ 431
cudaGraphMemsetNodeSetParams........................................................................................ 432
cudaGraphNodeFindInClone.................................................................................................... 433
cudaGraphNodeGetDependencies........................................................................................... 434
cudaGraphNodeGetDependentNodes...................................................................................... 435
cudaGraphNodeGetEnabled..................................................................................................... 436
cudaGraphNodeGetType........................................................................................................... 437
cudaGraphNodeSetEnabled..................................................................................................... 438
cudaGraphNodeSetParams......................................................................................................439
cudaGraphReleaseUserObject................................................................................................. 440
cudaGraphRemoveDependencies............................................................................................ 441
cudaGraphRetainUserObject.................................................................................................... 442
cudaGraphUpload..................................................................................................................... 443
cudaUserObjectCreate..............................................................................................................443
cudaUserObjectRelease........................................................................................................... 444
cudaUserObjectRetain.............................................................................................................. 445
6.29. Driver Entry Point Access...................................................................................................446
cudaGetDriverEntryPoint.......................................................................................................... 446
6.30. C++ API Routines................................................................................................................ 448
__cudaOccupancyB2DHelper................................................................................................... 448
cudaCreateChannelDesc.......................................................................................................... 448
cudaEventCreate....................................................................................................................... 449
cudaFuncGetAttributes............................................................................................................. 450
cudaFuncSetAttribute............................................................................................................... 451
cudaFuncSetCacheConfig.........................................................................................................453
cudaGetKernel...........................................................................................................................454
cudaGetSymbolAddress............................................................................................................455
cudaGetSymbolSize...................................................................................................................456
cudaGraphAddMemcpyNodeFromSymbol...............................................................................457
cudaGraphAddMemcpyNodeToSymbol....................................................................................459
cudaGraphExecMemcpyNodeSetParamsFromSymbol...........................................................461
cudaGraphExecMemcpyNodeSetParamsToSymbol................................................................462
cudaGraphInstantiate............................................................................................................... 464
cudaGraphMemcpyNodeSetParamsFromSymbol...................................................................465
cudaGraphMemcpyNodeSetParamsToSymbol........................................................................466
cudaLaunchCooperativeKernel................................................................................................ 468
cudaLaunchKernel....................................................................................................................469
cudaLaunchKernelEx................................................................................................................471
cudaMallocAsync...................................................................................................................... 472
cudaMallocHost.........................................................................................................................473
cudaMallocManaged................................................................................................................. 474
cudaMemAdvise........................................................................................................................ 477
cudaMemcpyFromSymbol........................................................................................................ 477
cudaMemcpyFromSymbolAsync.............................................................................................. 478
cudaMemcpyToSymbol............................................................................................................. 480
cudaMemcpyToSymbolAsync................................................................................................... 481
cudaOccupancyAvailableDynamicSMemPerBlock.................................................................. 483
cudaOccupancyMaxActiveBlocksPerMultiprocessor.............................................................. 484
cudaOccupancyMaxActiveBlocksPerMultiprocessorWithFlags..............................................485
cudaOccupancyMaxActiveClusters...........................................................................................487
cudaOccupancyMaxPotentialBlockSize................................................................................... 488
cudaOccupancyMaxPotentialBlockSizeVariableSMem........................................................... 489
cudaOccupancyMaxPotentialBlockSizeVariableSMemWithFlags.......................................... 490
cudaOccupancyMaxPotentialBlockSizeWithFlags...................................................................492
cudaOccupancyMaxPotentialClusterSize.................................................................................494
cudaStreamAttachMemAsync.................................................................................................. 495
6.31. Interactions with the CUDA Driver API.............................................................................. 497
cudaGetFuncBySymbol............................................................................................................. 499
cudaGetKernel...........................................................................................................................500
6.32. Profiler Control....................................................................................................................500
cudaProfilerStart.......................................................................................................................500
cudaProfilerStop....................................................................................................................... 501
6.33. Data types used by CUDA Runtime....................................................................................501
cudaAccessPolicyWindow.........................................................................................................502
cudaArrayMemoryRequirements............................................................................................. 502
cudaArraySparseProperties..................................................................................................... 502
cudaChannelFormatDesc......................................................................................................... 502
cudaChildGraphNodeParams...................................................................................................502
cudaDeviceProp........................................................................................................................ 502
cudaEglFrame........................................................................................................................... 502
cudaEglPlaneDesc.................................................................................................................... 502
cudaEventRecordNodeParams................................................................................................ 502
cudaEventWaitNodeParams..................................................................................................... 502
cudaExtent.................................................................................................................................502
cudaExternalMemoryBufferDesc............................................................................................. 502
cudaExternalMemoryHandleDesc............................................................................................502
cudaExternalMemoryMipmappedArrayDesc........................................................................... 502
cudaExternalSemaphoreHandleDesc...................................................................................... 502
cudaExternalSemaphoreSignalNodeParams.......................................................................... 502
cudaExternalSemaphoreSignalNodeParamsV2...................................................................... 502
cudaExternalSemaphoreSignalParams...................................................................................503
cudaExternalSemaphoreSignalParams_v1............................................................................. 503
cudaExternalSemaphoreWaitNodeParams............................................................................. 503
cudaExternalSemaphoreWaitNodeParamsV2......................................................................... 503
cudaExternalSemaphoreWaitParams......................................................................................503
cudaExternalSemaphoreWaitParams_v1................................................................................ 503
cudaFuncAttributes...................................................................................................................503
cudaGraphExecUpdateResultInfo............................................................................................ 503
cudaGraphInstantiateParams.................................................................................................. 503
cudaHostNodeParams..............................................................................................................503
cudaHostNodeParamsV2..........................................................................................................503
cudaIpcEventHandle_t.............................................................................................................. 503
cudaIpcMemHandle_t............................................................................................................... 503
cudaKernelNodeParams.......................................................................................................... 503
cudaKernelNodeParamsV2...................................................................................................... 503
cudaLaunchAttribute................................................................................................................ 503
cudaLaunchAttributeValue....................................................................................................... 503
cudaLaunchConfig_t................................................................................................................. 504
cudaLaunchParams.................................................................................................................. 504
cudaMemAccessDesc............................................................................................................... 504
cudaMemAllocNodeParams.....................................................................................................504
cudaMemAllocNodeParamsV2.................................................................................................504
cudaMemcpy3DParms..............................................................................................................504
cudaMemcpy3DPeerParms......................................................................................................504
cudaMemcpyNodeParams....................................................................................................... 504
cudaMemFreeNodeParams..................................................................................................... 504
cudaMemLocation.....................................................................................................................504
cudaMemPoolProps..................................................................................................................504
cudaMemPoolPtrExportData....................................................................................................504
cudaMemsetParams.................................................................................................................504
cudaMemsetParamsV2.............................................................................................................504
cudaPitchedPtr..........................................................................................................................504
cudaPointerAttributes...............................................................................................................504
cudaPos..................................................................................................................................... 504
cudaResourceDesc................................................................................................................... 505
cudaResourceViewDesc............................................................................................................505
cudaTextureDesc...................................................................................................................... 505
CUuuid_st.................................................................................................................................. 505
cudaAccessProperty................................................................................................................. 505
cudaCGScope............................................................................................................................ 505
cudaChannelFormatKind..........................................................................................................505
cudaClusterSchedulingPolicy...................................................................................................507
cudaComputeMode................................................................................................................... 507
cudaDeviceAttr.......................................................................................................................... 508
cudaDeviceP2PAttr................................................................................................................... 514
cudaDriverEntryPointQueryResult........................................................................................... 514
cudaEglColorFormat.................................................................................................................514
cudaEglFrameType................................................................................................................... 521
cudaEglResourceLocationFlags...............................................................................................521
cudaError.................................................................................................................................. 522
cudaExternalMemoryHandleType............................................................................................ 532
cudaExternalSemaphoreHandleType.......................................................................................533
cudaFlushGPUDirectRDMAWritesOptions...............................................................................533
cudaFlushGPUDirectRDMAWritesScope................................................................................. 534
cudaFlushGPUDirectRDMAWritesTarget................................................................................ 534
cudaFuncAttribute.................................................................................................................... 534
cudaFuncCache.........................................................................................................................535
cudaGetDriverEntryPointFlags.................................................................................................535
cudaGPUDirectRDMAWritesOrdering...................................................................................... 535
cudaGraphDebugDotFlags....................................................................................................... 536
cudaGraphExecUpdateResult...................................................................................................536
cudaGraphicsCubeFace............................................................................................................ 537
cudaGraphicsMapFlags............................................................................................................ 537
cudaGraphicsRegisterFlags..................................................................................................... 538
cudaGraphInstantiateFlags...................................................................................................... 538
cudaGraphInstantiateResult.....................................................................................................538
cudaGraphMemAttributeType...................................................................................................539
cudaGraphNodeType.................................................................................................................539
cudaLaunchAttributeID.............................................................................................................540
cudaLimit...................................................................................................................................541
cudaMemAccessFlags.............................................................................................................. 541
cudaMemAllocationHandleType...............................................................................................542
cudaMemAllocationType...........................................................................................................542
cudaMemcpyKind...................................................................................................................... 542
cudaMemLocationType............................................................................................................. 543
cudaMemoryAdvise................................................................................................................... 543
cudaMemoryType...................................................................................................................... 543
cudaMemPoolAttr..................................................................................................................... 544
cudaMemRangeAttribute..........................................................................................................545
cudaResourceType....................................................................................................................545
cudaResourceViewFormat........................................................................................................545
cudaSharedCarveout.................................................................................................................547
cudaSharedMemConfig............................................................................................................ 547
cudaStreamCaptureMode.........................................................................................................548
cudaStreamCaptureStatus....................................................................................................... 548
cudaStreamUpdateCaptureDependenciesFlags..................................................................... 548
cudaSurfaceBoundaryMode..................................................................................................... 548
cudaSurfaceFormatMode......................................................................................................... 549
cudaTextureAddressMode........................................................................................................ 549
cudaTextureFilterMode.............................................................................................................549
cudaTextureReadMode............................................................................................................. 550
cudaUserObjectFlags................................................................................................................550
cudaUserObjectRetainFlags..................................................................................................... 550
cudaArray_const_t.................................................................................................................... 550
cudaArray_t............................................................................................................................... 550
cudaEglStreamConnection....................................................................................................... 550
cudaError_t............................................................................................................................... 550
cudaEvent_t............................................................................................................................... 551
cudaExternalMemory_t.............................................................................................................551
cudaExternalSemaphore_t....................................................................................................... 551
cudaFunction_t..........................................................................................................................551
cudaGraph_t.............................................................................................................................. 551
cudaGraphExec_t...................................................................................................................... 551
cudaGraphicsResource_t..........................................................................................................551
cudaGraphNode_t..................................................................................................................... 551
cudaHostFn_t............................................................................................................................ 551
cudaKernel_t............................................................................................................................. 552
cudaMemPool_t........................................................................................................................ 552
cudaMipmappedArray_const_t.................................................................................................552
cudaMipmappedArray_t............................................................................................................552
cudaStream_t............................................................................................................................ 552
cudaSurfaceObject_t.................................................................................................................552
cudaTextureObject_t................................................................................................................. 552
cudaUserObject_t......................................................................................................................552
CUDA_EGL_MAX_PLANES....................................................................................................... 552
CUDA_IPC_HANDLE_SIZE....................................................................................................... 552
cudaArrayColorAttachment...................................................................................................... 553
cudaArrayCubemap.................................................................................................................. 553
cudaArrayDefault...................................................................................................................... 553
cudaArrayDeferredMapping..................................................................................................... 553
cudaArrayLayered..................................................................................................................... 553
cudaArraySparse.......................................................................................................................553
cudaArraySparsePropertiesSingleMipTail...............................................................................553
cudaArraySurfaceLoadStore.................................................................................................... 553
cudaArrayTextureGather.......................................................................................................... 553
cudaCooperativeLaunchMultiDeviceNoPostSync....................................................................554
cudaCooperativeLaunchMultiDeviceNoPreSync..................................................................... 554
cudaCpuDeviceId.......................................................................................................................554
cudaDeviceBlockingSync.......................................................................................................... 554
cudaDeviceLmemResizeToMax................................................................................................554
cudaDeviceMapHost..................................................................................................................554
cudaDeviceMask....................................................................................................................... 554
cudaDeviceScheduleAuto......................................................................................................... 554
cudaDeviceScheduleBlockingSync...........................................................................................555
cudaDeviceScheduleMask........................................................................................................ 555
cudaDeviceScheduleSpin..........................................................................................................555
cudaDeviceScheduleYield......................................................................................................... 555
cudaDeviceSyncMemops.......................................................................................................... 555
cudaEventBlockingSync............................................................................................................555
cudaEventDefault...................................................................................................................... 555
cudaEventDisableTiming.......................................................................................................... 555
cudaEventInterprocess............................................................................................................. 555
cudaEventRecordDefault.......................................................................................................... 555
cudaEventRecordExternal........................................................................................................ 555
cudaEventWaitDefault...............................................................................................................556
cudaEventWaitExternal.............................................................................................................556
cudaExternalMemoryDedicated............................................................................................... 556
cudaExternalSemaphoreSignalSkipNvSciBufMemSync......................................................... 556
cudaExternalSemaphoreWaitSkipNvSciBufMemSync............................................................ 556
cudaHostAllocDefault............................................................................................................... 556
cudaHostAllocMapped.............................................................................................................. 556
cudaHostAllocPortable............................................................................................................. 557
cudaHostAllocWriteCombined..................................................................................................557
cudaHostRegisterDefault......................................................................................................... 557
cudaHostRegisterIoMemory..................................................................................................... 557
cudaHostRegisterMapped........................................................................................................ 557
cudaHostRegisterPortable....................................................................................................... 557
cudaHostRegisterReadOnly......................................................................................................557
cudaInitDeviceFlagsAreValid.................................................................................................... 557
cudaInvalidDeviceId.................................................................................................................. 557
cudaIpcMemLazyEnablePeerAccess....................................................................................... 557
cudaMemAttachGlobal..............................................................................................................557
cudaMemAttachHost.................................................................................................................558
cudaMemAttachSingle..............................................................................................................558
cudaNvSciSyncAttrSignal......................................................................................................... 558
cudaNvSciSyncAttrWait............................................................................................................ 558
cudaOccupancyDefault............................................................................................................. 558
cudaOccupancyDisableCachingOverride................................................................................. 558
cudaPeerAccessDefault............................................................................................................558
cudaStreamDefault................................................................................................................... 558
cudaStreamLegacy................................................................................................................... 558
cudaStreamNonBlocking..........................................................................................................559
cudaStreamPerThread............................................................................................................. 559
```