Group,MemoryTest
1,7
1,3
1,3
1,2
1,3
1,8
1,8
1,5
1,8
1,5
1,5
1,4
1,6
1,10
1,10
1,5
1,1
1,1
1,4
1,3
1,5
1,7
1,1
1,9
1,2
1,5
1,2
1,12
1,15
1,4
2,5
2,4
2,4
2,5
2,5
2,7
2,8
2,8
2,9
2,8
2,3
2,2
2,5
2,4
2,4
2,6
2,7
2,7
2,5
2,6
2,4
2,3
2,2
2,7
2,6
2,2
2,8
2,9
2,7
2,6
