

dbgStr2 = String.format("IN:%7.3f, INFER:%7.3f, OUT:%7.3f (%7.3f ms)",
                                in,
                                infer,
                                out,
                                in+infer+out);


dbgStr2 = String.format("%7.3f", in);

String dbgStr2 = String.format("%7.3f", in);
Log.e("DRAW", dbgStr2);