Age,Shoe Size,Intelligence,Level of Education
15,Small,110,7
22,Medium,109,12
56,Large,98,15
7,Small,105,4
25,Medium,110,15
57,Large,125,8
12,Small,110,11
45,Medium,98,15
76,Large,97,12
14,Small,107,10
34,Medium,125,12
56,Large,106,12
9,Small,110,5
44,Medium,123,12
56,Large,109,18
